{
  "__type__": "cc.AnimationClip",
  "_name": "mario_big_move",
  "_objFlags": 0,
  "_native": "",
  "_duration": 0.6833333333333333,
  "sample": 60,
  "speed": 1,
  "wrapMode": 1,
  "curveData": {
    "comps": {
      "cc.Sprite": {
        "spriteFrame": [
          {
            "frame": 0,
            "value": {
              "__uuid__": "29e784e3-7821-4831-ac31-aa094f4632e4"
            }
          },
          {
            "frame": 0.16666666666666666,
            "value": {
              "__uuid__": "4778ccb8-80c6-4ae6-b4ca-9be84e860dfe"
            }
          },
          {
            "frame": 0.3333333333333333,
            "value": {
              "__uuid__": "fa4f9aec-c97d-4310-a387-5a583953cf2f"
            }
          },
          {
            "frame": 0.5,
            "value": {
              "__uuid__": "4778ccb8-80c6-4ae6-b4ca-9be84e860dfe"
            }
          },
          {
            "frame": 0.6666666666666666,
            "value": {
              "__uuid__": "29e784e3-7821-4831-ac31-aa094f4632e4"
            }
          }
        ]
      }
    }
  },
  "events": []
}